<svg width="124" height="188" viewBox="0 0 124 188" fill="none" xmlns="http://www.w3.org/2000/svg">
<g id="Plant">
<g id="Group">
<path id="Vector" d="M62.5292 95.3074C50.7575 83.2688 32.3188 78.2094 16.0484 82.5607C30.1847 92.0312 46.0625 97.1077 63.0755 97.2442" fill="#04959E"/>
<g id="Group_2">
<path id="Vector_2" d="M46.7625 39.5085C48.7002 25.8233 43.3735 10.4146 33.1213 0.466309C32.7798 14.0321 38.5163 29.3043 46.7625 39.5085Z" fill="#04959E"/>
<path id="Vector_3" d="M54.9659 65.3688C47.6588 51.4106 35.6651 39.9522 21.3752 33.2887C25.6604 49.0472 39.148 61.9475 55.094 65.5224" fill="#04959E"/>
<path id="Vector_4" d="M56.6647 70.36C48.3929 70.5904 40.0187 70.3003 32.0201 68.1844C24.0215 66.0685 16.3558 61.9987 11.029 55.668C27.1202 55.6851 43.1772 60.5824 56.5367 69.5495" fill="#04959E"/>
<path id="Vector_5" d="M52.4648 53.9275C56.6647 38.1946 63.5963 27.3163 75.9655 18.5028C76.9045 26.156 75.018 34.1248 70.7583 40.5494C66.4986 46.9739 59.8829 51.8116 52.4733 53.9275" fill="#04959E"/>
<path id="Vector_6" d="M83.691 81.0505C83.9044 71.9128 78.0143 62.9287 69.5376 59.4818C70.229 67.6042 76.6057 76.9979 83.691 81.0505Z" fill="#04959E"/>
<path id="Vector_7" d="M87.6433 67.7919C88.5823 54.6527 97.9212 42.4947 110.384 38.1946C107.525 51.3423 99.9187 62.2803 87.6433 67.7919Z" fill="#04959E"/>
<path id="Vector_8" d="M81.6849 91.323C84.6044 87.1509 89.3591 84.5572 94.2932 83.2689C99.2272 81.9805 104.366 81.8696 109.454 81.7587C102.582 89.3095 92.2701 93.6011 82.069 93.1574" fill="#04959E"/>
<path id="Vector_9" d="M75.7777 124.854C84.9544 122.021 95.181 122.755 103.863 126.867C112.544 130.98 119.587 138.419 123.206 147.318C105.971 144.05 88.975 136.397 75.7692 124.862" fill="#04959E"/>
<path id="Vector_10" d="M56.861 113.199C59.7207 121.654 59.1744 131.875 52.8148 139.162C50.2282 130.485 51.7563 120.673 56.861 113.199Z" fill="#04959E"/>
<path id="Vector_11" d="M45.6869 108.506C44.893 119.376 37.9358 129.589 28.1104 134.324C27.6238 134.563 27.0604 134.785 26.5568 134.58C25.78 134.264 25.7117 133.206 25.8056 132.379C27.0519 121.543 35.0846 111.066 45.6869 108.515" fill="#04959E"/>
<path id="Vector_12" d="M38.3882 107.406C33.5481 112.636 26.4885 115.741 19.3606 115.776C12.2327 115.81 5.14745 112.781 0.256088 107.602C12.3778 106.28 26.3604 105.392 38.3882 107.406Z" fill="#04959E"/>
<g id="Group_3">
<path id="Vector_13" d="M36.57 10.5596C36.57 10.5596 36.6041 10.679 36.681 10.9179C36.7749 11.1654 36.8944 11.5066 37.048 11.9418C37.3895 12.8632 37.8846 14.1771 38.5078 15.8665C39.1565 17.5643 39.9163 19.6547 40.787 22.0863C41.2223 23.2978 41.6918 24.6032 42.1869 25.9768C42.665 27.359 43.1686 28.8265 43.6979 30.3622C45.8491 36.4967 48.2307 43.8598 50.8002 52.059C53.327 60.2752 55.9818 69.3362 58.5939 78.9005C61.1719 88.4819 63.4512 97.6452 65.3975 106.015C67.284 114.393 68.9145 121.961 70.0839 128.36C70.3827 129.956 70.673 131.474 70.9461 132.916C71.1937 134.358 71.4242 135.715 71.6376 136.995C72.0729 139.537 72.4485 141.73 72.7046 143.53C72.9778 145.305 73.1912 146.695 73.3363 147.668C73.4131 148.12 73.4729 148.479 73.5156 148.743C73.5583 148.982 73.5839 149.11 73.5924 149.11C73.6009 149.11 73.5924 148.982 73.5668 148.743C73.5327 148.479 73.49 148.12 73.4388 147.659C73.3107 146.687 73.1229 145.296 72.8924 143.513C72.6705 141.704 72.3205 139.511 71.9022 136.96C71.6973 135.681 71.4754 134.324 71.2449 132.874C70.9803 131.432 70.7071 129.905 70.4169 128.309C69.2815 121.902 67.6937 114.325 65.8243 105.93C63.9036 97.5513 61.6329 88.371 59.0549 78.7811C56.4428 69.2082 53.7709 60.1387 51.2185 51.931C48.6234 43.7318 46.1991 36.3773 44.0137 30.2513C43.476 28.7156 42.9552 27.2566 42.4687 25.8744C41.9565 24.5008 41.4784 23.2039 41.0345 21.9924C40.1382 19.5693 39.3614 17.4875 38.687 15.7982C38.0212 14.126 37.509 12.8206 37.1419 11.9077C36.9712 11.4811 36.8346 11.1483 36.7322 10.9009C36.6383 10.6705 36.5871 10.5596 36.5785 10.5596H36.57Z" fill="#263238"/>
<path id="Vector_14" d="M103.145 45.2078C103.145 45.2078 103.069 45.2676 102.941 45.4041C102.795 45.5576 102.599 45.7624 102.36 46.0098C101.856 46.5473 101.122 47.3579 100.209 48.4158C98.3821 50.5403 95.7956 53.6971 93.0725 57.929C90.3494 62.1437 87.558 67.5103 85.6117 73.8837C83.6141 80.2315 82.3678 87.458 81.1386 95.0003C78.6716 110.102 75.6497 123.633 73.4644 133.42C72.3632 138.291 71.4668 142.242 70.8351 145.006C70.5364 146.354 70.3059 147.412 70.1352 148.163C70.0669 148.504 70.0071 148.777 69.9644 148.982C69.9303 149.17 69.9132 149.263 69.9217 149.263C69.9217 149.263 69.9559 149.17 70.0071 148.99C70.0583 148.786 70.1352 148.513 70.2205 148.18C70.4083 147.438 70.6729 146.38 71.0059 145.049C71.6632 142.293 72.6107 138.351 73.7717 133.496C76.0423 123.727 79.124 110.196 81.591 95.0771C82.8288 87.5263 84.0495 80.3339 86.0214 74.0117C87.9336 67.6725 90.6738 62.3315 93.3542 58.1082C96.0346 53.8763 98.5699 50.6939 100.354 48.5353C101.25 47.4517 101.959 46.6327 102.437 46.0696C102.667 45.8051 102.847 45.5918 102.983 45.4297C103.103 45.2846 103.163 45.2078 103.154 45.1993L103.145 45.2078Z" fill="#263238"/>
<path id="Vector_15" d="M34.7603 106.894C34.7603 106.894 34.9139 106.936 35.1956 106.971C35.5371 107.005 35.9468 107.056 36.4505 107.107C36.7322 107.133 37.031 107.167 37.3553 107.192C37.6883 107.244 38.0468 107.295 38.4309 107.355C39.1992 107.465 40.0785 107.585 41.0345 107.79C41.5126 107.884 42.0162 107.986 42.5369 108.088C43.0577 108.216 43.5955 108.353 44.1503 108.498C45.2686 108.754 46.4295 109.163 47.6673 109.53C50.1002 110.383 52.7294 111.484 55.3416 112.909C57.9452 114.359 60.25 116.023 62.2219 117.687C63.178 118.548 64.0999 119.359 64.8597 120.221C65.6792 121.031 66.3365 121.867 66.9511 122.627C67.5913 123.361 68.0437 124.128 68.4962 124.76C68.9571 125.383 69.2901 125.971 69.5547 126.441C69.8108 126.876 70.0242 127.234 70.1949 127.524C70.3486 127.772 70.4339 127.899 70.451 127.891C70.4681 127.882 70.4083 127.746 70.2803 127.481C70.1266 127.174 69.9388 126.799 69.7083 126.347C69.4608 125.852 69.1535 125.255 68.7096 124.606C68.2742 123.958 67.8389 123.173 67.2072 122.413C66.6096 121.629 65.9523 120.775 65.1414 119.939C64.3816 119.06 63.4597 118.233 62.5036 117.345C60.5317 115.648 58.2013 113.95 55.5635 112.482C52.9172 111.04 50.2624 109.94 47.8039 109.104C46.5576 108.737 45.3796 108.336 44.2442 108.097C43.6808 107.96 43.1345 107.832 42.6138 107.713C42.0845 107.619 41.5809 107.525 41.0943 107.44C40.1297 107.244 39.2419 107.158 38.4651 107.064C38.0809 107.022 37.7224 106.979 37.3809 106.936C37.0566 106.919 36.7493 106.902 36.4676 106.885C35.9639 106.868 35.5456 106.851 35.2042 106.834C34.9139 106.834 34.7603 106.834 34.7603 106.851V106.894Z" fill="#263238"/>
</g>
<path id="Vector_16" d="M31.3116 45.4979C31.3116 45.4979 31.6018 45.8221 32.1823 46.3426C32.8396 46.9142 33.6761 47.6394 34.6749 48.5012C36.7919 50.3099 39.7455 52.7927 43.015 55.5059C46.293 58.219 49.2722 60.6592 51.4489 62.4082C52.4904 63.2273 53.3526 63.9184 54.0355 64.4559C54.6501 64.9337 55.0001 65.1811 55.0257 65.1555C55.0513 65.1299 54.7355 64.8313 54.1465 64.3109C53.4891 63.7392 52.6526 63.014 51.6538 62.1437C49.5368 60.335 46.5832 57.8522 43.3137 55.139C40.0358 52.4259 37.0566 49.9857 34.8883 48.2452C33.8469 47.4261 32.9847 46.735 32.3018 46.1975C31.6872 45.7197 31.3286 45.4723 31.3116 45.4894V45.4979Z" fill="#263238"/>
<path id="Vector_17" d="M28.3324 61.5294C28.2982 61.6489 34.6578 63.6368 42.5455 65.9661C50.4331 68.2953 56.8525 70.087 56.8952 69.959C56.9293 69.8396 50.5697 67.8516 42.6821 65.5224C34.7944 63.1932 28.375 61.4015 28.3409 61.5294H28.3324Z" fill="#263238"/>
<path id="Vector_18" d="M51.8331 55.1476C51.8331 55.1476 52.0892 54.8404 52.4904 54.2346C52.9343 53.5521 53.4977 52.6989 54.1721 51.6836C55.5976 49.5335 57.6122 46.5986 60.0024 43.4673C62.3926 40.3446 64.6975 37.6229 66.3962 35.6777C67.1986 34.7647 67.873 33.9969 68.4108 33.3826C68.8888 32.8365 69.1364 32.5294 69.1108 32.5038C69.0852 32.4782 68.7949 32.7512 68.2742 33.2546C67.7535 33.758 67.0279 34.5088 66.1486 35.4558C64.3901 37.3499 62.0341 40.046 59.6354 43.1858C57.2366 46.3255 55.2476 49.3032 53.8989 51.5044C53.2245 52.605 52.6867 53.5094 52.3453 54.1408C51.9953 54.7721 51.816 55.1305 51.8416 55.1476H51.8331Z" fill="#263238"/>
<path id="Vector_19" d="M73.9339 64.0379C73.8741 64.0805 74.4802 65.002 75.4277 66.4951C76.3753 67.9881 77.6728 70.0699 79.0045 72.4077C80.3362 74.754 81.463 76.9211 82.2654 78.508C83.0678 80.0864 83.5544 81.0761 83.6141 81.042C83.6654 81.0164 83.2898 79.9841 82.5642 78.363C81.8386 76.7419 80.7545 74.5407 79.4142 72.1773C78.074 69.8225 76.7338 67.7578 75.7094 66.3074C74.6851 64.8569 73.9936 64.0037 73.9424 64.0379H73.9339Z" fill="#263238"/>
<path id="Vector_20" d="M81.4971 91.7667C81.5313 91.8264 82.7434 91.2377 84.7324 90.3418C86.7214 89.446 89.4957 88.2771 92.6286 87.1765C95.77 86.0844 98.6638 85.2653 100.772 84.7278C102.881 84.1903 104.204 83.8917 104.187 83.8234C104.187 83.7893 103.845 83.8234 103.239 83.9258C102.633 84.0197 101.763 84.1818 100.695 84.4121C98.5529 84.8729 95.6249 85.6407 92.4749 86.7414C89.325 87.8505 86.5507 89.0706 84.5873 90.0432C83.6056 90.5295 82.8288 90.9476 82.2995 91.2462C81.7703 91.5534 81.48 91.7325 81.4971 91.7581V91.7667Z" fill="#263238"/>
<path id="Vector_21" d="M75.5387 124.905C75.5387 124.905 75.6667 124.964 75.9314 125.041C76.2472 125.118 76.6228 125.22 77.0753 125.331C78.1508 125.579 79.5764 125.912 81.3093 126.304C84.8775 127.132 89.8457 128.173 95.1383 129.947C100.422 131.747 104.964 134.034 108.037 136.005C109.582 136.986 110.777 137.856 111.588 138.479C112.399 139.102 112.843 139.452 112.868 139.426C112.877 139.418 112.783 139.307 112.587 139.128C112.39 138.948 112.1 138.667 111.699 138.343C110.922 137.669 109.744 136.756 108.208 135.732C105.152 133.676 100.602 131.321 95.2834 129.512C89.9567 127.72 84.9629 126.731 81.3776 125.98C79.6362 125.639 78.1935 125.357 77.1094 125.144C76.1021 124.956 75.5387 124.862 75.5302 124.896L75.5387 124.905Z" fill="#263238"/>
<path id="Vector_22" d="M54.0184 133.07C54.1465 133.087 54.9062 128.625 55.7086 123.105C56.5196 117.584 57.0659 113.088 56.9464 113.071C56.8183 113.054 56.0586 117.516 55.2562 123.036C54.4452 128.556 53.8989 133.053 54.0184 133.07Z" fill="#263238"/>
<path id="Vector_23" d="M31.6018 124.939C31.653 124.982 32.4127 124.052 33.6249 122.541C34.8371 121.031 36.5188 118.958 38.4138 116.697C40.3089 114.436 42.0674 112.431 43.3479 110.981C44.6198 109.53 45.4137 108.626 45.3625 108.583C45.3369 108.558 45.1149 108.754 44.7222 109.129C44.3296 109.505 43.7747 110.059 43.1089 110.759C41.7687 112.158 39.9675 114.137 38.0639 116.398C36.1602 118.659 34.5212 120.775 33.3688 122.337C32.7969 123.113 32.3445 123.753 32.0371 124.205C31.7384 124.657 31.5762 124.913 31.6018 124.93V124.939Z" fill="#263238"/>
</g>
<path id="Vector_24" d="M90.9128 145.714V156.78H88.147L78.3045 187.836H56.4769L46.9332 157.096L43.2455 156.78V145.714H90.9128Z" fill="#04959E"/>
<g id="Group_4" opacity="0.3">
<path id="Vector_25" d="M90.9128 145.714V156.78H88.147L78.3045 187.836H56.4769L46.9332 157.096L43.2455 156.78V145.714H90.9128Z" fill="black"/>
</g>
<path id="Vector_26" d="M45.0893 157.096C45.0893 157.224 54.7269 157.326 66.6182 157.326C78.5094 157.326 88.147 157.224 88.147 157.096C88.147 156.968 78.5094 156.865 66.6182 156.865C54.7269 156.865 45.0893 156.968 45.0893 157.096Z" fill="#263238"/>
<path id="Vector_27" d="M29.3909 85.8967C29.3909 85.8967 29.886 86.0588 30.7908 86.2721C31.7725 86.511 33.0615 86.8182 34.6237 87.1936C37.8504 87.9956 42.2894 89.2071 47.0954 90.8196C51.9099 92.4407 56.1696 94.1471 59.2256 95.461C60.6939 96.1009 61.9061 96.6384 62.8365 97.0394C63.6902 97.4148 64.1682 97.6111 64.1767 97.5855C64.1938 97.5599 63.7414 97.3039 62.9133 96.8773C62.0853 96.4422 60.8731 95.8535 59.3537 95.1624C56.3232 93.7717 52.0636 92.0056 47.232 90.376C42.4089 88.7549 37.9443 87.586 34.6834 86.8694C33.053 86.511 31.7298 86.2465 30.8164 86.0844C29.8945 85.9223 29.3909 85.854 29.3823 85.8796L29.3909 85.8967Z" fill="#263238"/>
<path id="Vector_28" d="M52.3367 174.339C52.3367 174.467 59.0976 174.569 67.4376 174.569C75.7777 174.569 82.5386 174.467 82.5386 174.339C82.5386 174.211 75.7777 174.109 67.4376 174.109C59.0976 174.109 52.3367 174.211 52.3367 174.339Z" fill="#FAFAFA"/>
<path id="Vector_29" d="M51.4916 171.771C51.4916 171.899 58.6622 172.001 67.4974 172.001C76.3326 172.001 83.5032 171.899 83.5032 171.771C83.5032 171.643 76.3411 171.54 67.4974 171.54C58.6537 171.54 51.4916 171.643 51.4916 171.771Z" fill="#FAFAFA"/>
</g>
</g>
</svg>
